Library\Bee\artifacts\mvdfrm\Unity.2D.Sprite.Editor.ref.dll_DDBAA27A82CE9E28.mvfrm
Library\Bee\artifacts\mvdfrm\Unity.2D.Tilemap.Editor.ref.dll_436C0E2610862891.mvfrm
Library\Bee\artifacts\mvdfrm\Unity.AI.Navigation.Editor.ConversionSystem.ref.dll_D58562F0DF82BCBA.mvfrm
Library\Bee\artifacts\mvdfrm\Unity.AI.Navigation.Editor.ref.dll_7989A1C8D57EF9BF.mvfrm
Library\Bee\artifacts\mvdfrm\Unity.AI.Navigation.Updater.ref.dll_34B8D5B7DED6E76D.mvfrm
Library\Bee\artifacts\mvdfrm\Unity.AI.Navigation.ref.dll_407F07063643C512.mvfrm
Library\Bee\artifacts\mvdfrm\Unity.Analytics.DataPrivacy.ref.dll_B44BF53B55CD31DE.mvfrm
Library\Bee\artifacts\mvdfrm\Unity.EditorCoroutines.Editor.ref.dll_34ED10A34098B2DB.mvfrm
Library\Bee\artifacts\mvdfrm\Unity.Performance.Profile-Analyzer.Editor.ref.dll_65A192712782EB2B.mvfrm
Library\Bee\artifacts\mvdfrm\Unity.PlasticSCM.Editor.ref.dll_257AEB342BE77856.mvfrm
Library\Bee\artifacts\mvdfrm\Unity.Postprocessing.Editor.ref.dll_1C9CD17610FFA3F0.mvfrm
Library\Bee\artifacts\mvdfrm\Unity.Postprocessing.Runtime.ref.dll_3152B6A9836FBF3B.mvfrm
Library\Bee\artifacts\mvdfrm\Unity.Rider.Editor.ref.dll_9B5591808ABA37AF.mvfrm
Library\Bee\artifacts\mvdfrm\Unity.Services.Analytics.Editor.ref.dll_07BD01682DBD125D.mvfrm
Library\Bee\artifacts\mvdfrm\Unity.Services.Analytics.ref.dll_5F295EB8E7853A94.mvfrm
Library\Bee\artifacts\mvdfrm\Unity.Services.Core.Analytics.ref.dll_EDA1682A714EA6BF.mvfrm
Library\Bee\artifacts\mvdfrm\Unity.Services.Core.Environments.ref.dll_7E0AC2CDE81D9C6D.mvfrm
Library\Bee\artifacts\mvdfrm\Unity.Services.Core.ref.dll_131AC9C5EC6E6517.mvfrm
Library\Bee\artifacts\mvdfrm\Unity.TestTools.CodeCoverage.Editor.OpenCover.Model.ref.dll_D3B9364D6FB03093.mvfrm
Library\Bee\artifacts\mvdfrm\Unity.TestTools.CodeCoverage.Editor.OpenCover.Mono.Reflection.ref.dll_E668CD773429A040.mvfrm
Library\Bee\artifacts\mvdfrm\Unity.TestTools.CodeCoverage.Editor.ref.dll_F09CF4826CE11CD9.mvfrm
Library\Bee\artifacts\mvdfrm\Unity.TextMeshPro.Editor.ref.dll_159E061D77A10B86.mvfrm
Library\Bee\artifacts\mvdfrm\Unity.TextMeshPro.ref.dll_84A4293DBDD182DB.mvfrm
Library\Bee\artifacts\mvdfrm\Unity.Timeline.Editor.ref.dll_0D3D3C0B73557612.mvfrm
Library\Bee\artifacts\mvdfrm\Unity.Timeline.ref.dll_621CDDF9C514DF8F.mvfrm
Library\Bee\artifacts\mvdfrm\Unity.VSCode.Editor.ref.dll_3628369EB48E4C19.mvfrm
Library\Bee\artifacts\mvdfrm\Unity.VisualScripting.Core.Editor.ref.dll_EDC8690F57C5BDFD.mvfrm
Library\Bee\artifacts\mvdfrm\Unity.VisualScripting.Core.ref.dll_D75DF4EA1AFE54F4.mvfrm
Library\Bee\artifacts\mvdfrm\Unity.VisualScripting.Flow.Editor.ref.dll_6AF951BE66A4493E.mvfrm
Library\Bee\artifacts\mvdfrm\Unity.VisualScripting.Flow.ref.dll_1E6ED5409D07C9A3.mvfrm
Library\Bee\artifacts\mvdfrm\Unity.VisualScripting.SettingsProvider.Editor.ref.dll_A1A44354E0B583A8.mvfrm
Library\Bee\artifacts\mvdfrm\Unity.VisualScripting.Shared.Editor.ref.dll_9669F6EBFF6DFFB7.mvfrm
Library\Bee\artifacts\mvdfrm\Unity.VisualScripting.State.Editor.ref.dll_E03858E727F23F6F.mvfrm
Library\Bee\artifacts\mvdfrm\Unity.VisualScripting.State.ref.dll_D91762B7076BE462.mvfrm
Library\Bee\artifacts\mvdfrm\Unity.VisualStudio.Editor.ref.dll_3A975DBA53ABA4AD.mvfrm
Library\Bee\artifacts\mvdfrm\UnityEditor.Purchasing.ref.dll_8A54E68F887CD9BF.mvfrm
Library\Bee\artifacts\mvdfrm\UnityEditor.SpatialTracking.ref.dll_8911EA67839E93F0.mvfrm
Library\Bee\artifacts\mvdfrm\UnityEditor.TestRunner.ref.dll_193EC4CE382CBFB3.mvfrm
Library\Bee\artifacts\mvdfrm\UnityEditor.UI.ref.dll_4C98D3F7040CD4F5.mvfrm
Library\Bee\artifacts\mvdfrm\UnityEditor.XR.LegacyInputHelpers.ref.dll_3F12D550ED6E7C7D.mvfrm
Library\Bee\artifacts\mvdfrm\UnityEngine.Advertisements.Editor.ref.dll_95BDE7AB6BD0B967.mvfrm
Library\Bee\artifacts\mvdfrm\UnityEngine.Advertisements.ref.dll_324BF20D18302AEA.mvfrm
Library\Bee\artifacts\mvdfrm\UnityEngine.Purchasing.Codeless.ref.dll_513D40CFE18D69D0.mvfrm
Library\Bee\artifacts\mvdfrm\UnityEngine.Purchasing.SecurityCore.ref.dll_A4738A01776218D9.mvfrm
Library\Bee\artifacts\mvdfrm\UnityEngine.Purchasing.SecurityStub.ref.dll_EF9A4EF51ACED418.mvfrm
Library\Bee\artifacts\mvdfrm\UnityEngine.Purchasing.Stores.ref.dll_D1DFD8417D6A87AC.mvfrm
Library\Bee\artifacts\mvdfrm\UnityEngine.Purchasing.ref.dll_5673313DB44037AA.mvfrm
Library\Bee\artifacts\mvdfrm\UnityEngine.SpatialTracking.ref.dll_1552DC8EFC971715.mvfrm
Library\Bee\artifacts\mvdfrm\UnityEngine.TestRunner.ref.dll_E55D0F7C63F01D9E.mvfrm
Library\Bee\artifacts\mvdfrm\UnityEngine.UI.ref.dll_08FEAA520A2EFD60.mvfrm
Library\Bee\artifacts\mvdfrm\UnityEngine.XR.LegacyInputHelpers.ref.dll_FFA26A0728B3CF82.mvfrm
Library\Bee\artifacts\mvdfrm\UnityEditor.Graphs.dll_D08C86179771D1AD.mvfrm
Library\Bee\artifacts\mvdfrm\UnityEditor.CoreModule.dll_478C0C2FC257827B.mvfrm
Library\Bee\artifacts\mvdfrm\UnityEditor.DeviceSimulatorModule.dll_DA23332122CD9136.mvfrm
Library\Bee\artifacts\mvdfrm\UnityEditor.DiagnosticsModule.dll_E9273EA3AB7D8604.mvfrm
Library\Bee\artifacts\mvdfrm\UnityEditor.dll_1AAFF57CA82C7E2A.mvfrm
Library\Bee\artifacts\mvdfrm\UnityEditor.EditorToolbarModule.dll_4CB5A679303EB446.mvfrm
Library\Bee\artifacts\mvdfrm\UnityEditor.GraphViewModule.dll_6CCB2F1CF11E115B.mvfrm
Library\Bee\artifacts\mvdfrm\UnityEditor.PresetsUIModule.dll_283167FEF3766960.mvfrm
Library\Bee\artifacts\mvdfrm\UnityEditor.QuickSearchModule.dll_7436BFB10454825D.mvfrm
Library\Bee\artifacts\mvdfrm\UnityEditor.SceneTemplateModule.dll_705517372F2B5E7E.mvfrm
Library\Bee\artifacts\mvdfrm\UnityEditor.SceneViewModule.dll_AB7B1224E640DE69.mvfrm
Library\Bee\artifacts\mvdfrm\UnityEditor.TextCoreFontEngineModule.dll_18EC201CB171AD99.mvfrm
Library\Bee\artifacts\mvdfrm\UnityEditor.TextCoreTextEngineModule.dll_60D4568E40F566B7.mvfrm
Library\Bee\artifacts\mvdfrm\UnityEditor.UIBuilderModule.dll_C153DC3963D68A8F.mvfrm
Library\Bee\artifacts\mvdfrm\UnityEditor.UIElementsModule.dll_4F400B1A4F7F5DD7.mvfrm
Library\Bee\artifacts\mvdfrm\UnityEditor.UIElementsSamplesModule.dll_4315ABC5ACE58E06.mvfrm
Library\Bee\artifacts\mvdfrm\UnityEditor.UnityConnectModule.dll_0D45C40B305A6EB1.mvfrm
Library\Bee\artifacts\mvdfrm\UnityEngine.AccessibilityModule.dll_A2FA82CE2FA1861B.mvfrm
Library\Bee\artifacts\mvdfrm\UnityEngine.AIModule.dll_A7F217C222EF4F6F.mvfrm
Library\Bee\artifacts\mvdfrm\UnityEngine.AndroidJNIModule.dll_CD88F3ED989ECCAD.mvfrm
Library\Bee\artifacts\mvdfrm\UnityEngine.AnimationModule.dll_3B50AB45CB7AE601.mvfrm
Library\Bee\artifacts\mvdfrm\UnityEngine.ARModule.dll_6164DCC5800CAE38.mvfrm
Library\Bee\artifacts\mvdfrm\UnityEngine.AssetBundleModule.dll_B81FF2A266BB374F.mvfrm
Library\Bee\artifacts\mvdfrm\UnityEngine.AudioModule.dll_1ACCDEE44A4D5EB3.mvfrm
Library\Bee\artifacts\mvdfrm\UnityEngine.ClothModule.dll_81B53BDF246A3D97.mvfrm
Library\Bee\artifacts\mvdfrm\UnityEngine.ClusterInputModule.dll_8CE23920E1E24177.mvfrm
Library\Bee\artifacts\mvdfrm\UnityEngine.ClusterRendererModule.dll_DFCFF59292889EBA.mvfrm
Library\Bee\artifacts\mvdfrm\UnityEngine.ContentLoadModule.dll_51364BE3353DDF3C.mvfrm
Library\Bee\artifacts\mvdfrm\UnityEngine.CoreModule.dll_6AACDF826A5CEDA6.mvfrm
Library\Bee\artifacts\mvdfrm\UnityEngine.CrashReportingModule.dll_5C95B0EB3A1584FE.mvfrm
Library\Bee\artifacts\mvdfrm\UnityEngine.DirectorModule.dll_55050BBE824E7543.mvfrm
Library\Bee\artifacts\mvdfrm\UnityEngine.dll_4D543C5506A00B0F.mvfrm
Library\Bee\artifacts\mvdfrm\UnityEngine.DSPGraphModule.dll_5A566D27F4AF4664.mvfrm
Library\Bee\artifacts\mvdfrm\UnityEngine.GameCenterModule.dll_F7D63E085EDFBD9E.mvfrm
Library\Bee\artifacts\mvdfrm\UnityEngine.GIModule.dll_402E60CFBE9E3789.mvfrm
Library\Bee\artifacts\mvdfrm\UnityEngine.GridModule.dll_481DFB7082B1839D.mvfrm
Library\Bee\artifacts\mvdfrm\UnityEngine.HotReloadModule.dll_BC99694BA6AE0183.mvfrm
Library\Bee\artifacts\mvdfrm\UnityEngine.ImageConversionModule.dll_4BC1F34314AD56AE.mvfrm
Library\Bee\artifacts\mvdfrm\UnityEngine.IMGUIModule.dll_532C7E4B107EF294.mvfrm
Library\Bee\artifacts\mvdfrm\UnityEngine.InputLegacyModule.dll_49650DC0FEACED40.mvfrm
Library\Bee\artifacts\mvdfrm\UnityEngine.InputModule.dll_8142A694C0858357.mvfrm
Library\Bee\artifacts\mvdfrm\UnityEngine.JSONSerializeModule.dll_03120C0A2EDCE6A5.mvfrm
Library\Bee\artifacts\mvdfrm\UnityEngine.LocalizationModule.dll_CB2F0373795E3470.mvfrm
Library\Bee\artifacts\mvdfrm\UnityEngine.NVIDIAModule.dll_E01E1AFE0E40F2D2.mvfrm
Library\Bee\artifacts\mvdfrm\UnityEngine.ParticleSystemModule.dll_AFA7FA37A827108C.mvfrm
Library\Bee\artifacts\mvdfrm\UnityEngine.PerformanceReportingModule.dll_351D92D1281FA865.mvfrm
Library\Bee\artifacts\mvdfrm\UnityEngine.Physics2DModule.dll_87F69B366C77DD96.mvfrm
Library\Bee\artifacts\mvdfrm\UnityEngine.PhysicsModule.dll_576F7BE69E7D2DE4.mvfrm
Library\Bee\artifacts\mvdfrm\UnityEngine.ProfilerModule.dll_874B44F51BA7FC50.mvfrm
Library\Bee\artifacts\mvdfrm\UnityEngine.PropertiesModule.dll_25117D46D1CB21DA.mvfrm
Library\Bee\artifacts\mvdfrm\UnityEngine.RuntimeInitializeOnLoadManagerInitializerModule.dll_77BD2A1D70517A5F.mvfrm
Library\Bee\artifacts\mvdfrm\UnityEngine.ScreenCaptureModule.dll_1CF9B98F43491307.mvfrm
Library\Bee\artifacts\mvdfrm\UnityEngine.SharedInternalsModule.dll_CFD332188BDB51FE.mvfrm
Library\Bee\artifacts\mvdfrm\UnityEngine.SpriteMaskModule.dll_E102B098804F5318.mvfrm
Library\Bee\artifacts\mvdfrm\UnityEngine.SpriteShapeModule.dll_D1811FFD1C5D6F59.mvfrm
Library\Bee\artifacts\mvdfrm\UnityEngine.StreamingModule.dll_EFE598961B029D3F.mvfrm
Library\Bee\artifacts\mvdfrm\UnityEngine.SubstanceModule.dll_CC90ACDF66559B4D.mvfrm
Library\Bee\artifacts\mvdfrm\UnityEngine.SubsystemsModule.dll_4BB016FA4E973B2B.mvfrm
Library\Bee\artifacts\mvdfrm\UnityEngine.TerrainModule.dll_71B5F755743B76D2.mvfrm
Library\Bee\artifacts\mvdfrm\UnityEngine.TerrainPhysicsModule.dll_B022A30AC16A0B19.mvfrm
Library\Bee\artifacts\mvdfrm\UnityEngine.TextCoreFontEngineModule.dll_974B9B6FC46F6C64.mvfrm
Library\Bee\artifacts\mvdfrm\UnityEngine.TextCoreTextEngineModule.dll_DF33D1E153F32582.mvfrm
Library\Bee\artifacts\mvdfrm\UnityEngine.TextRenderingModule.dll_46392B99FA8092FC.mvfrm
Library\Bee\artifacts\mvdfrm\UnityEngine.TilemapModule.dll_10B25ED68BF857DB.mvfrm
Library\Bee\artifacts\mvdfrm\UnityEngine.TLSModule.dll_AF0B41373D3365B8.mvfrm
Library\Bee\artifacts\mvdfrm\UnityEngine.UIElementsModule.dll_4FEE786251C37722.mvfrm
Library\Bee\artifacts\mvdfrm\UnityEngine.UIModule.dll_A365B5EF7F36551B.mvfrm
Library\Bee\artifacts\mvdfrm\UnityEngine.UmbraModule.dll_95A18AFCD7740A26.mvfrm
Library\Bee\artifacts\mvdfrm\UnityEngine.UnityAnalyticsCommonModule.dll_D05C5015420846C3.mvfrm
Library\Bee\artifacts\mvdfrm\UnityEngine.UnityAnalyticsModule.dll_CF476B01544E6288.mvfrm
Library\Bee\artifacts\mvdfrm\UnityEngine.UnityConnectModule.dll_FAA5481A2AE26F5C.mvfrm
Library\Bee\artifacts\mvdfrm\UnityEngine.UnityCurlModule.dll_6E6D4C773B8ED7EE.mvfrm
Library\Bee\artifacts\mvdfrm\UnityEngine.UnityTestProtocolModule.dll_FED861B806E0E35C.mvfrm
Library\Bee\artifacts\mvdfrm\UnityEngine.UnityWebRequestAssetBundleModule.dll_2F8350E652C32B59.mvfrm
Library\Bee\artifacts\mvdfrm\UnityEngine.UnityWebRequestAudioModule.dll_AD19E6AFAE8A72FD.mvfrm
Library\Bee\artifacts\mvdfrm\UnityEngine.UnityWebRequestModule.dll_5D60FAED1FA1F12D.mvfrm
Library\Bee\artifacts\mvdfrm\UnityEngine.UnityWebRequestTextureModule.dll_2B8FCE6CC49CFA72.mvfrm
Library\Bee\artifacts\mvdfrm\UnityEngine.UnityWebRequestWWWModule.dll_A9F6173D43B2E1EE.mvfrm
Library\Bee\artifacts\mvdfrm\UnityEngine.VehiclesModule.dll_CCC8053DFC7844DE.mvfrm
Library\Bee\artifacts\mvdfrm\UnityEngine.VFXModule.dll_2FE9D9A613A0CF25.mvfrm
Library\Bee\artifacts\mvdfrm\UnityEngine.VideoModule.dll_3FD6634F0CDF7A58.mvfrm
Library\Bee\artifacts\mvdfrm\UnityEngine.VirtualTexturingModule.dll_152D02E36A4684C4.mvfrm
Library\Bee\artifacts\mvdfrm\UnityEngine.VRModule.dll_F637DC7520F0DA93.mvfrm
Library\Bee\artifacts\mvdfrm\UnityEngine.WindModule.dll_E0FBBAAAFB936C0F.mvfrm
Library\Bee\artifacts\mvdfrm\UnityEngine.XRModule.dll_28F69F79AA2B27F1.mvfrm
Library\Bee\artifacts\mvdfrm\Unity.Android.Gradle.dll_A2A301E3394609E3.mvfrm
Library\Bee\artifacts\mvdfrm\Unity.Android.GradleProject.dll_F8B42A7340605502.mvfrm
Library\Bee\artifacts\mvdfrm\Unity.Android.Types.dll_E2DACB1E56909B09.mvfrm
Library\Bee\artifacts\mvdfrm\UnityEditor.Android.Extensions.dll_5603C0FCC0494203.mvfrm
Library\Bee\artifacts\mvdfrm\UnityEditor.UWP.Extensions.dll_D64C141AF26C6560.mvfrm
Library\Bee\artifacts\mvdfrm\UnityEditor.WebGL.Extensions.dll_FF19BA5BF13E3765.mvfrm
Library\Bee\artifacts\mvdfrm\UnityEditor.WindowsStandalone.Extensions.dll_DFA05A8373FE39D5.mvfrm
Library\Bee\artifacts\mvdfrm\Unity.Analytics.StandardEvents.dll_2539AF974BFE7ABE.mvfrm
Library\Bee\artifacts\mvdfrm\Unity.Analytics.Editor.dll_448B18A867B17122.mvfrm
Library\Bee\artifacts\mvdfrm\Unity.Analytics.Tracker.dll_B294C7C751B9DF6F.mvfrm
Library\Bee\artifacts\mvdfrm\Unity.Plastic.Antlr3.Runtime.dll_56AFA6E27C7D5F59.mvfrm
Library\Bee\artifacts\mvdfrm\Unity.Plastic.Newtonsoft.Json.dll_C9C18B6F155787CC.mvfrm
Library\Bee\artifacts\mvdfrm\Unity.VisualScripting.IonicZip.dll_3753AE2E22DD17B6.mvfrm
Library\Bee\artifacts\mvdfrm\Unity.VisualScripting.YamlDotNet.dll_B9EB2E0105A28BA6.mvfrm
Library\Bee\artifacts\mvdfrm\Unity.VisualScripting.TextureAssets.dll_51095754C66FE99E.mvfrm
Library\Bee\artifacts\mvdfrm\Unity.VisualScripting.Antlr3.Runtime.dll_6B5854E2366B9BC5.mvfrm