-target:library
-out:"Library/Bee/artifacts/1900b0aP.dag/Assembly-CSharp.dll"
-refout:"Library/Bee/artifacts/1900b0aP.dag/Assembly-CSharp.ref.dll"
-define:UNITY_2022_2_18
-define:UNITY_2022_2
-define:UNITY_2022
-define:UNITY_5_3_OR_NEWER
-define:UNITY_5_4_OR_NEWER
-define:UNITY_5_5_OR_NEWER
-define:UNITY_5_6_OR_NEWER
-define:UNITY_2017_1_OR_NEWER
-define:UNITY_2017_2_OR_NEWER
-define:UNITY_2017_3_OR_NEWER
-define:UNITY_2017_4_OR_NEWER
-define:UNITY_2018_1_OR_NEWER
-define:UNITY_2018_2_OR_NEWER
-define:UNITY_2018_3_OR_NEWER
-define:UNITY_2018_4_OR_NEWER
-define:UNITY_2019_1_OR_NEWER
-define:UNITY_2019_2_OR_NEWER
-define:UNITY_2019_3_OR_NEWER
-define:UNITY_2019_4_OR_NEWER
-define:UNITY_2020_1_OR_NEWER
-define:UNITY_2020_2_OR_NEWER
-define:UNITY_2020_3_OR_NEWER
-define:UNITY_2021_1_OR_NEWER
-define:UNITY_2021_2_OR_NEWER
-define:UNITY_2021_3_OR_NEWER
-define:UNITY_2022_1_OR_NEWER
-define:UNITY_2022_2_OR_NEWER
-define:PLATFORM_ARCH_64
-define:UNITY_64
-define:ENABLE_AR
-define:ENABLE_AUDIO
-define:ENABLE_CACHING
-define:ENABLE_CLOTH
-define:ENABLE_EVENT_QUEUE
-define:ENABLE_MICROPHONE
-define:ENABLE_MULTIPLE_DISPLAYS
-define:ENABLE_PHYSICS
-define:ENABLE_TEXTURE_STREAMING
-define:ENABLE_VIRTUALTEXTURING
-define:ENABLE_LZMA
-define:ENABLE_UNITYEVENTS
-define:ENABLE_VR
-define:ENABLE_WEBCAM
-define:ENABLE_UNITYWEBREQUEST
-define:ENABLE_WWW
-define:ENABLE_CLOUD_SERVICES
-define:ENABLE_CLOUD_SERVICES_COLLAB
-define:ENABLE_CLOUD_SERVICES_COLLAB_SOFTLOCKS
-define:ENABLE_CLOUD_SERVICES_ADS
-define:ENABLE_CLOUD_SERVICES_USE_WEBREQUEST
-define:ENABLE_CLOUD_SERVICES_CRASH_REPORTING
-define:ENABLE_CLOUD_SERVICES_PURCHASING
-define:ENABLE_CLOUD_SERVICES_ANALYTICS
-define:ENABLE_CLOUD_SERVICES_BUILD
-define:ENABLE_EDITOR_GAME_SERVICES
-define:ENABLE_UNITY_GAME_SERVICES_ANALYTICS_SUPPORT
-define:ENABLE_CLOUD_LICENSE
-define:ENABLE_EDITOR_HUB_LICENSE
-define:ENABLE_WEBSOCKET_CLIENT
-define:ENABLE_GENERATE_NATIVE_PLUGINS_FOR_ASSEMBLIES_API
-define:ENABLE_DIRECTOR_AUDIO
-define:ENABLE_DIRECTOR_TEXTURE
-define:ENABLE_MANAGED_JOBS
-define:ENABLE_MANAGED_TRANSFORM_JOBS
-define:ENABLE_MANAGED_ANIMATION_JOBS
-define:ENABLE_MANAGED_AUDIO_JOBS
-define:ENABLE_MANAGED_UNITYTLS
-define:INCLUDE_DYNAMIC_GI
-define:ENABLE_SCRIPTING_GC_WBARRIERS
-define:PLATFORM_SUPPORTS_MONO
-define:RENDER_SOFTWARE_CURSOR
-define:ENABLE_VIDEO
-define:ENABLE_ACCELERATOR_CLIENT_DEBUGGING
-define:ENABLE_NAVIGATION_PACKAGE_DEBUG_VISUALIZATION
-define:ENABLE_NAVIGATION_HEIGHTMESH_RUNTIME_SUPPORT
-define:ENABLE_NAVIGATION_UI_REQUIRES_PACKAGE
-define:PLATFORM_STANDALONE
-define:TEXTCORE_1_0_OR_NEWER
-define:PLATFORM_STANDALONE_WIN
-define:UNITY_STANDALONE_WIN
-define:UNITY_STANDALONE
-define:ENABLE_RUNTIME_GI
-define:ENABLE_MOVIES
-define:ENABLE_NETWORK
-define:ENABLE_NVIDIA
-define:ENABLE_CRUNCH_TEXTURE_COMPRESSION
-define:ENABLE_OUT_OF_PROCESS_CRASH_HANDLER
-define:ENABLE_CLUSTER_SYNC
-define:ENABLE_CLUSTERINPUT
-define:PLATFORM_UPDATES_TIME_OUTSIDE_OF_PLAYER_LOOP
-define:GFXDEVICE_WAITFOREVENT_MESSAGEPUMP
-define:PLATFORM_INITIALIZES_MEMORY_MANAGER_EXPLICITLY
-define:ENABLE_MONO
-define:NET_STANDARD_2_0
-define:NET_STANDARD
-define:NET_STANDARD_2_1
-define:NETSTANDARD
-define:NETSTANDARD2_1
-define:ENABLE_CUSTOM_RENDER_TEXTURE
-define:ENABLE_DIRECTOR
-define:ENABLE_LOCALIZATION
-define:ENABLE_SPRITES
-define:ENABLE_TERRAIN
-define:ENABLE_TILEMAP
-define:ENABLE_TIMELINE
-define:ENABLE_LEGACY_INPUT_MANAGER
-define:TEXTCORE_FONT_ENGINE_1_5_OR_NEWER
-define:UNITY_POST_PROCESSING_STACK_V2
-define:CSHARP_7_OR_LATER
-define:CSHARP_7_3_OR_NEWER
-r:"Assets/Plugins/netstandard2.0/Photon3Unity3D.dll"
-r:"Assets/Plugins/WebSocket/websocket-sharp.dll"
-r:"C:/Program Files/Unity/Hub/Editor/2022.2.18f1/Editor/Data/NetStandard/compat/2.1.0/shims/netfx/mscorlib.dll"
-r:"C:/Program Files/Unity/Hub/Editor/2022.2.18f1/Editor/Data/NetStandard/compat/2.1.0/shims/netfx/System.ComponentModel.Composition.dll"
-r:"C:/Program Files/Unity/Hub/Editor/2022.2.18f1/Editor/Data/NetStandard/compat/2.1.0/shims/netfx/System.Core.dll"
-r:"C:/Program Files/Unity/Hub/Editor/2022.2.18f1/Editor/Data/NetStandard/compat/2.1.0/shims/netfx/System.Data.dll"
-r:"C:/Program Files/Unity/Hub/Editor/2022.2.18f1/Editor/Data/NetStandard/compat/2.1.0/shims/netfx/System.dll"
-r:"C:/Program Files/Unity/Hub/Editor/2022.2.18f1/Editor/Data/NetStandard/compat/2.1.0/shims/netfx/System.Drawing.dll"
-r:"C:/Program Files/Unity/Hub/Editor/2022.2.18f1/Editor/Data/NetStandard/compat/2.1.0/shims/netfx/System.IO.Compression.FileSystem.dll"
-r:"C:/Program Files/Unity/Hub/Editor/2022.2.18f1/Editor/Data/NetStandard/compat/2.1.0/shims/netfx/System.Net.dll"
-r:"C:/Program Files/Unity/Hub/Editor/2022.2.18f1/Editor/Data/NetStandard/compat/2.1.0/shims/netfx/System.Numerics.dll"
-r:"C:/Program Files/Unity/Hub/Editor/2022.2.18f1/Editor/Data/NetStandard/compat/2.1.0/shims/netfx/System.Runtime.Serialization.dll"
-r:"C:/Program Files/Unity/Hub/Editor/2022.2.18f1/Editor/Data/NetStandard/compat/2.1.0/shims/netfx/System.ServiceModel.Web.dll"
-r:"C:/Program Files/Unity/Hub/Editor/2022.2.18f1/Editor/Data/NetStandard/compat/2.1.0/shims/netfx/System.Transactions.dll"
-r:"C:/Program Files/Unity/Hub/Editor/2022.2.18f1/Editor/Data/NetStandard/compat/2.1.0/shims/netfx/System.Web.dll"
-r:"C:/Program Files/Unity/Hub/Editor/2022.2.18f1/Editor/Data/NetStandard/compat/2.1.0/shims/netfx/System.Windows.dll"
-r:"C:/Program Files/Unity/Hub/Editor/2022.2.18f1/Editor/Data/NetStandard/compat/2.1.0/shims/netfx/System.Xml.dll"
-r:"C:/Program Files/Unity/Hub/Editor/2022.2.18f1/Editor/Data/NetStandard/compat/2.1.0/shims/netfx/System.Xml.Linq.dll"
-r:"C:/Program Files/Unity/Hub/Editor/2022.2.18f1/Editor/Data/NetStandard/compat/2.1.0/shims/netfx/System.Xml.Serialization.dll"
-r:"C:/Program Files/Unity/Hub/Editor/2022.2.18f1/Editor/Data/NetStandard/compat/2.1.0/shims/netstandard/Microsoft.Win32.Primitives.dll"
-r:"C:/Program Files/Unity/Hub/Editor/2022.2.18f1/Editor/Data/NetStandard/compat/2.1.0/shims/netstandard/System.AppContext.dll"
-r:"C:/Program Files/Unity/Hub/Editor/2022.2.18f1/Editor/Data/NetStandard/compat/2.1.0/shims/netstandard/System.Buffers.dll"
-r:"C:/Program Files/Unity/Hub/Editor/2022.2.18f1/Editor/Data/NetStandard/compat/2.1.0/shims/netstandard/System.Collections.Concurrent.dll"
-r:"C:/Program Files/Unity/Hub/Editor/2022.2.18f1/Editor/Data/NetStandard/compat/2.1.0/shims/netstandard/System.Collections.dll"
-r:"C:/Program Files/Unity/Hub/Editor/2022.2.18f1/Editor/Data/NetStandard/compat/2.1.0/shims/netstandard/System.Collections.NonGeneric.dll"
-r:"C:/Program Files/Unity/Hub/Editor/2022.2.18f1/Editor/Data/NetStandard/compat/2.1.0/shims/netstandard/System.Collections.Specialized.dll"
-r:"C:/Program Files/Unity/Hub/Editor/2022.2.18f1/Editor/Data/NetStandard/compat/2.1.0/shims/netstandard/System.ComponentModel.dll"
-r:"C:/Program Files/Unity/Hub/Editor/2022.2.18f1/Editor/Data/NetStandard/compat/2.1.0/shims/netstandard/System.ComponentModel.EventBasedAsync.dll"
-r:"C:/Program Files/Unity/Hub/Editor/2022.2.18f1/Editor/Data/NetStandard/compat/2.1.0/shims/netstandard/System.ComponentModel.Primitives.dll"
-r:"C:/Program Files/Unity/Hub/Editor/2022.2.18f1/Editor/Data/NetStandard/compat/2.1.0/shims/netstandard/System.ComponentModel.TypeConverter.dll"
-r:"C:/Program Files/Unity/Hub/Editor/2022.2.18f1/Editor/Data/NetStandard/compat/2.1.0/shims/netstandard/System.Console.dll"
-r:"C:/Program Files/Unity/Hub/Editor/2022.2.18f1/Editor/Data/NetStandard/compat/2.1.0/shims/netstandard/System.Data.Common.dll"
-r:"C:/Program Files/Unity/Hub/Editor/2022.2.18f1/Editor/Data/NetStandard/compat/2.1.0/shims/netstandard/System.Diagnostics.Contracts.dll"
-r:"C:/Program Files/Unity/Hub/Editor/2022.2.18f1/Editor/Data/NetStandard/compat/2.1.0/shims/netstandard/System.Diagnostics.Debug.dll"
-r:"C:/Program Files/Unity/Hub/Editor/2022.2.18f1/Editor/Data/NetStandard/compat/2.1.0/shims/netstandard/System.Diagnostics.FileVersionInfo.dll"
-r:"C:/Program Files/Unity/Hub/Editor/2022.2.18f1/Editor/Data/NetStandard/compat/2.1.0/shims/netstandard/System.Diagnostics.Process.dll"
-r:"C:/Program Files/Unity/Hub/Editor/2022.2.18f1/Editor/Data/NetStandard/compat/2.1.0/shims/netstandard/System.Diagnostics.StackTrace.dll"
-r:"C:/Program Files/Unity/Hub/Editor/2022.2.18f1/Editor/Data/NetStandard/compat/2.1.0/shims/netstandard/System.Diagnostics.TextWriterTraceListener.dll"
-r:"C:/Program Files/Unity/Hub/Editor/2022.2.18f1/Editor/Data/NetStandard/compat/2.1.0/shims/netstandard/System.Diagnostics.Tools.dll"
-r:"C:/Program Files/Unity/Hub/Editor/2022.2.18f1/Editor/Data/NetStandard/compat/2.1.0/shims/netstandard/System.Diagnostics.TraceSource.dll"
-r:"C:/Program Files/Unity/Hub/Editor/2022.2.18f1/Editor/Data/NetStandard/compat/2.1.0/shims/netstandard/System.Diagnostics.Tracing.dll"
-r:"C:/Program Files/Unity/Hub/Editor/2022.2.18f1/Editor/Data/NetStandard/compat/2.1.0/shims/netstandard/System.Drawing.Primitives.dll"
-r:"C:/Program Files/Unity/Hub/Editor/2022.2.18f1/Editor/Data/NetStandard/compat/2.1.0/shims/netstandard/System.Dynamic.Runtime.dll"
-r:"C:/Program Files/Unity/Hub/Editor/2022.2.18f1/Editor/Data/NetStandard/compat/2.1.0/shims/netstandard/System.Globalization.Calendars.dll"
-r:"C:/Program Files/Unity/Hub/Editor/2022.2.18f1/Editor/Data/NetStandard/compat/2.1.0/shims/netstandard/System.Globalization.dll"
-r:"C:/Program Files/Unity/Hub/Editor/2022.2.18f1/Editor/Data/NetStandard/compat/2.1.0/shims/netstandard/System.Globalization.Extensions.dll"
-r:"C:/Program Files/Unity/Hub/Editor/2022.2.18f1/Editor/Data/NetStandard/compat/2.1.0/shims/netstandard/System.IO.Compression.dll"
-r:"C:/Program Files/Unity/Hub/Editor/2022.2.18f1/Editor/Data/NetStandard/compat/2.1.0/shims/netstandard/System.IO.Compression.ZipFile.dll"
-r:"C:/Program Files/Unity/Hub/Editor/2022.2.18f1/Editor/Data/NetStandard/compat/2.1.0/shims/netstandard/System.IO.dll"
-r:"C:/Program Files/Unity/Hub/Editor/2022.2.18f1/Editor/Data/NetStandard/compat/2.1.0/shims/netstandard/System.IO.FileSystem.dll"
-r:"C:/Program Files/Unity/Hub/Editor/2022.2.18f1/Editor/Data/NetStandard/compat/2.1.0/shims/netstandard/System.IO.FileSystem.DriveInfo.dll"
-r:"C:/Program Files/Unity/Hub/Editor/2022.2.18f1/Editor/Data/NetStandard/compat/2.1.0/shims/netstandard/System.IO.FileSystem.Primitives.dll"
-r:"C:/Program Files/Unity/Hub/Editor/2022.2.18f1/Editor/Data/NetStandard/compat/2.1.0/shims/netstandard/System.IO.FileSystem.Watcher.dll"
-r:"C:/Program Files/Unity/Hub/Editor/2022.2.18f1/Editor/Data/NetStandard/compat/2.1.0/shims/netstandard/System.IO.IsolatedStorage.dll"
-r:"C:/Program Files/Unity/Hub/Editor/2022.2.18f1/Editor/Data/NetStandard/compat/2.1.0/shims/netstandard/System.IO.MemoryMappedFiles.dll"
-r:"C:/Program Files/Unity/Hub/Editor/2022.2.18f1/Editor/Data/NetStandard/compat/2.1.0/shims/netstandard/System.IO.Pipes.dll"
-r:"C:/Program Files/Unity/Hub/Editor/2022.2.18f1/Editor/Data/NetStandard/compat/2.1.0/shims/netstandard/System.IO.UnmanagedMemoryStream.dll"
-r:"C:/Program Files/Unity/Hub/Editor/2022.2.18f1/Editor/Data/NetStandard/compat/2.1.0/shims/netstandard/System.Linq.dll"
-r:"C:/Program Files/Unity/Hub/Editor/2022.2.18f1/Editor/Data/NetStandard/compat/2.1.0/shims/netstandard/System.Linq.Expressions.dll"
-r:"C:/Program Files/Unity/Hub/Editor/2022.2.18f1/Editor/Data/NetStandard/compat/2.1.0/shims/netstandard/System.Linq.Parallel.dll"
-r:"C:/Program Files/Unity/Hub/Editor/2022.2.18f1/Editor/Data/NetStandard/compat/2.1.0/shims/netstandard/System.Linq.Queryable.dll"
-r:"C:/Program Files/Unity/Hub/Editor/2022.2.18f1/Editor/Data/NetStandard/compat/2.1.0/shims/netstandard/System.Memory.dll"
-r:"C:/Program Files/Unity/Hub/Editor/2022.2.18f1/Editor/Data/NetStandard/compat/2.1.0/shims/netstandard/System.Net.Http.dll"
-r:"C:/Program Files/Unity/Hub/Editor/2022.2.18f1/Editor/Data/NetStandard/compat/2.1.0/shims/netstandard/System.Net.NameResolution.dll"
-r:"C:/Program Files/Unity/Hub/Editor/2022.2.18f1/Editor/Data/NetStandard/compat/2.1.0/shims/netstandard/System.Net.NetworkInformation.dll"
-r:"C:/Program Files/Unity/Hub/Editor/2022.2.18f1/Editor/Data/NetStandard/compat/2.1.0/shims/netstandard/System.Net.Ping.dll"
-r:"C:/Program Files/Unity/Hub/Editor/2022.2.18f1/Editor/Data/NetStandard/compat/2.1.0/shims/netstandard/System.Net.Primitives.dll"
-r:"C:/Program Files/Unity/Hub/Editor/2022.2.18f1/Editor/Data/NetStandard/compat/2.1.0/shims/netstandard/System.Net.Requests.dll"
-r:"C:/Program Files/Unity/Hub/Editor/2022.2.18f1/Editor/Data/NetStandard/compat/2.1.0/shims/netstandard/System.Net.Security.dll"
-r:"C:/Program Files/Unity/Hub/Editor/2022.2.18f1/Editor/Data/NetStandard/compat/2.1.0/shims/netstandard/System.Net.Sockets.dll"
-r:"C:/Program Files/Unity/Hub/Editor/2022.2.18f1/Editor/Data/NetStandard/compat/2.1.0/shims/netstandard/System.Net.WebHeaderCollection.dll"
-r:"C:/Program Files/Unity/Hub/Editor/2022.2.18f1/Editor/Data/NetStandard/compat/2.1.0/shims/netstandard/System.Net.WebSockets.Client.dll"
-r:"C:/Program Files/Unity/Hub/Editor/2022.2.18f1/Editor/Data/NetStandard/compat/2.1.0/shims/netstandard/System.Net.WebSockets.dll"
-r:"C:/Program Files/Unity/Hub/Editor/2022.2.18f1/Editor/Data/NetStandard/compat/2.1.0/shims/netstandard/System.Numerics.Vectors.dll"
-r:"C:/Program Files/Unity/Hub/Editor/2022.2.18f1/Editor/Data/NetStandard/compat/2.1.0/shims/netstandard/System.ObjectModel.dll"
-r:"C:/Program Files/Unity/Hub/Editor/2022.2.18f1/Editor/Data/NetStandard/compat/2.1.0/shims/netstandard/System.Reflection.DispatchProxy.dll"
-r:"C:/Program Files/Unity/Hub/Editor/2022.2.18f1/Editor/Data/NetStandard/compat/2.1.0/shims/netstandard/System.Reflection.dll"
-r:"C:/Program Files/Unity/Hub/Editor/2022.2.18f1/Editor/Data/NetStandard/compat/2.1.0/shims/netstandard/System.Reflection.Emit.dll"
-r:"C:/Program Files/Unity/Hub/Editor/2022.2.18f1/Editor/Data/NetStandard/compat/2.1.0/shims/netstandard/System.Reflection.Emit.ILGeneration.dll"
-r:"C:/Program Files/Unity/Hub/Editor/2022.2.18f1/Editor/Data/NetStandard/compat/2.1.0/shims/netstandard/System.Reflection.Emit.Lightweight.dll"
-r:"C:/Program Files/Unity/Hub/Editor/2022.2.18f1/Editor/Data/NetStandard/compat/2.1.0/shims/netstandard/System.Reflection.Extensions.dll"
-r:"C:/Program Files/Unity/Hub/Editor/2022.2.18f1/Editor/Data/NetStandard/compat/2.1.0/shims/netstandard/System.Reflection.Primitives.dll"
-r:"C:/Program Files/Unity/Hub/Editor/2022.2.18f1/Editor/Data/NetStandard/compat/2.1.0/shims/netstandard/System.Resources.Reader.dll"
-r:"C:/Program Files/Unity/Hub/Editor/2022.2.18f1/Editor/Data/NetStandard/compat/2.1.0/shims/netstandard/System.Resources.ResourceManager.dll"
-r:"C:/Program Files/Unity/Hub/Editor/2022.2.18f1/Editor/Data/NetStandard/compat/2.1.0/shims/netstandard/System.Resources.Writer.dll"
-r:"C:/Program Files/Unity/Hub/Editor/2022.2.18f1/Editor/Data/NetStandard/compat/2.1.0/shims/netstandard/System.Runtime.CompilerServices.VisualC.dll"
-r:"C:/Program Files/Unity/Hub/Editor/2022.2.18f1/Editor/Data/NetStandard/compat/2.1.0/shims/netstandard/System.Runtime.dll"
-r:"C:/Program Files/Unity/Hub/Editor/2022.2.18f1/Editor/Data/NetStandard/compat/2.1.0/shims/netstandard/System.Runtime.Extensions.dll"
-r:"C:/Program Files/Unity/Hub/Editor/2022.2.18f1/Editor/Data/NetStandard/compat/2.1.0/shims/netstandard/System.Runtime.Handles.dll"
-r:"C:/Program Files/Unity/Hub/Editor/2022.2.18f1/Editor/Data/NetStandard/compat/2.1.0/shims/netstandard/System.Runtime.InteropServices.dll"
-r:"C:/Program Files/Unity/Hub/Editor/2022.2.18f1/Editor/Data/NetStandard/compat/2.1.0/shims/netstandard/System.Runtime.InteropServices.RuntimeInformation.dll"
-r:"C:/Program Files/Unity/Hub/Editor/2022.2.18f1/Editor/Data/NetStandard/compat/2.1.0/shims/netstandard/System.Runtime.Numerics.dll"
-r:"C:/Program Files/Unity/Hub/Editor/2022.2.18f1/Editor/Data/NetStandard/compat/2.1.0/shims/netstandard/System.Runtime.Serialization.Formatters.dll"
-r:"C:/Program Files/Unity/Hub/Editor/2022.2.18f1/Editor/Data/NetStandard/compat/2.1.0/shims/netstandard/System.Runtime.Serialization.Json.dll"
-r:"C:/Program Files/Unity/Hub/Editor/2022.2.18f1/Editor/Data/NetStandard/compat/2.1.0/shims/netstandard/System.Runtime.Serialization.Primitives.dll"
-r:"C:/Program Files/Unity/Hub/Editor/2022.2.18f1/Editor/Data/NetStandard/compat/2.1.0/shims/netstandard/System.Runtime.Serialization.Xml.dll"
-r:"C:/Program Files/Unity/Hub/Editor/2022.2.18f1/Editor/Data/NetStandard/compat/2.1.0/shims/netstandard/System.Security.Claims.dll"
-r:"C:/Program Files/Unity/Hub/Editor/2022.2.18f1/Editor/Data/NetStandard/compat/2.1.0/shims/netstandard/System.Security.Cryptography.Algorithms.dll"
-r:"C:/Program Files/Unity/Hub/Editor/2022.2.18f1/Editor/Data/NetStandard/compat/2.1.0/shims/netstandard/System.Security.Cryptography.Csp.dll"
-r:"C:/Program Files/Unity/Hub/Editor/2022.2.18f1/Editor/Data/NetStandard/compat/2.1.0/shims/netstandard/System.Security.Cryptography.Encoding.dll"
-r:"C:/Program Files/Unity/Hub/Editor/2022.2.18f1/Editor/Data/NetStandard/compat/2.1.0/shims/netstandard/System.Security.Cryptography.Primitives.dll"
-r:"C:/Program Files/Unity/Hub/Editor/2022.2.18f1/Editor/Data/NetStandard/compat/2.1.0/shims/netstandard/System.Security.Cryptography.X509Certificates.dll"
-r:"C:/Program Files/Unity/Hub/Editor/2022.2.18f1/Editor/Data/NetStandard/compat/2.1.0/shims/netstandard/System.Security.Principal.dll"
-r:"C:/Program Files/Unity/Hub/Editor/2022.2.18f1/Editor/Data/NetStandard/compat/2.1.0/shims/netstandard/System.Security.SecureString.dll"
-r:"C:/Program Files/Unity/Hub/Editor/2022.2.18f1/Editor/Data/NetStandard/compat/2.1.0/shims/netstandard/System.Text.Encoding.dll"
-r:"C:/Program Files/Unity/Hub/Editor/2022.2.18f1/Editor/Data/NetStandard/compat/2.1.0/shims/netstandard/System.Text.Encoding.Extensions.dll"
-r:"C:/Program Files/Unity/Hub/Editor/2022.2.18f1/Editor/Data/NetStandard/compat/2.1.0/shims/netstandard/System.Text.RegularExpressions.dll"
-r:"C:/Program Files/Unity/Hub/Editor/2022.2.18f1/Editor/Data/NetStandard/compat/2.1.0/shims/netstandard/System.Threading.dll"
-r:"C:/Program Files/Unity/Hub/Editor/2022.2.18f1/Editor/Data/NetStandard/compat/2.1.0/shims/netstandard/System.Threading.Overlapped.dll"
-r:"C:/Program Files/Unity/Hub/Editor/2022.2.18f1/Editor/Data/NetStandard/compat/2.1.0/shims/netstandard/System.Threading.Tasks.dll"
-r:"C:/Program Files/Unity/Hub/Editor/2022.2.18f1/Editor/Data/NetStandard/compat/2.1.0/shims/netstandard/System.Threading.Tasks.Extensions.dll"
-r:"C:/Program Files/Unity/Hub/Editor/2022.2.18f1/Editor/Data/NetStandard/compat/2.1.0/shims/netstandard/System.Threading.Tasks.Parallel.dll"
-r:"C:/Program Files/Unity/Hub/Editor/2022.2.18f1/Editor/Data/NetStandard/compat/2.1.0/shims/netstandard/System.Threading.Thread.dll"
-r:"C:/Program Files/Unity/Hub/Editor/2022.2.18f1/Editor/Data/NetStandard/compat/2.1.0/shims/netstandard/System.Threading.ThreadPool.dll"
-r:"C:/Program Files/Unity/Hub/Editor/2022.2.18f1/Editor/Data/NetStandard/compat/2.1.0/shims/netstandard/System.Threading.Timer.dll"
-r:"C:/Program Files/Unity/Hub/Editor/2022.2.18f1/Editor/Data/NetStandard/compat/2.1.0/shims/netstandard/System.ValueTuple.dll"
-r:"C:/Program Files/Unity/Hub/Editor/2022.2.18f1/Editor/Data/NetStandard/compat/2.1.0/shims/netstandard/System.Xml.ReaderWriter.dll"
-r:"C:/Program Files/Unity/Hub/Editor/2022.2.18f1/Editor/Data/NetStandard/compat/2.1.0/shims/netstandard/System.Xml.XDocument.dll"
-r:"C:/Program Files/Unity/Hub/Editor/2022.2.18f1/Editor/Data/NetStandard/compat/2.1.0/shims/netstandard/System.Xml.XmlDocument.dll"
-r:"C:/Program Files/Unity/Hub/Editor/2022.2.18f1/Editor/Data/NetStandard/compat/2.1.0/shims/netstandard/System.Xml.XmlSerializer.dll"
-r:"C:/Program Files/Unity/Hub/Editor/2022.2.18f1/Editor/Data/NetStandard/compat/2.1.0/shims/netstandard/System.Xml.XPath.dll"
-r:"C:/Program Files/Unity/Hub/Editor/2022.2.18f1/Editor/Data/NetStandard/compat/2.1.0/shims/netstandard/System.Xml.XPath.XDocument.dll"
-r:"C:/Program Files/Unity/Hub/Editor/2022.2.18f1/Editor/Data/NetStandard/Extensions/2.0.0/System.Runtime.InteropServices.WindowsRuntime.dll"
-r:"C:/Program Files/Unity/Hub/Editor/2022.2.18f1/Editor/Data/NetStandard/ref/2.1.0/netstandard.dll"
-r:"C:/Program Files/Unity/Hub/Editor/2022.2.18f1/Editor/Data/PlaybackEngines/WindowsStandaloneSupport/Variations/mono/Managed/UnityEngine.AccessibilityModule.dll"
-r:"C:/Program Files/Unity/Hub/Editor/2022.2.18f1/Editor/Data/PlaybackEngines/WindowsStandaloneSupport/Variations/mono/Managed/UnityEngine.AIModule.dll"
-r:"C:/Program Files/Unity/Hub/Editor/2022.2.18f1/Editor/Data/PlaybackEngines/WindowsStandaloneSupport/Variations/mono/Managed/UnityEngine.AndroidJNIModule.dll"
-r:"C:/Program Files/Unity/Hub/Editor/2022.2.18f1/Editor/Data/PlaybackEngines/WindowsStandaloneSupport/Variations/mono/Managed/UnityEngine.AnimationModule.dll"
-r:"C:/Program Files/Unity/Hub/Editor/2022.2.18f1/Editor/Data/PlaybackEngines/WindowsStandaloneSupport/Variations/mono/Managed/UnityEngine.ARModule.dll"
-r:"C:/Program Files/Unity/Hub/Editor/2022.2.18f1/Editor/Data/PlaybackEngines/WindowsStandaloneSupport/Variations/mono/Managed/UnityEngine.AssetBundleModule.dll"
-r:"C:/Program Files/Unity/Hub/Editor/2022.2.18f1/Editor/Data/PlaybackEngines/WindowsStandaloneSupport/Variations/mono/Managed/UnityEngine.AudioModule.dll"
-r:"C:/Program Files/Unity/Hub/Editor/2022.2.18f1/Editor/Data/PlaybackEngines/WindowsStandaloneSupport/Variations/mono/Managed/UnityEngine.ClothModule.dll"
-r:"C:/Program Files/Unity/Hub/Editor/2022.2.18f1/Editor/Data/PlaybackEngines/WindowsStandaloneSupport/Variations/mono/Managed/UnityEngine.ClusterInputModule.dll"
-r:"C:/Program Files/Unity/Hub/Editor/2022.2.18f1/Editor/Data/PlaybackEngines/WindowsStandaloneSupport/Variations/mono/Managed/UnityEngine.ClusterRendererModule.dll"
-r:"C:/Program Files/Unity/Hub/Editor/2022.2.18f1/Editor/Data/PlaybackEngines/WindowsStandaloneSupport/Variations/mono/Managed/UnityEngine.ContentLoadModule.dll"
-r:"C:/Program Files/Unity/Hub/Editor/2022.2.18f1/Editor/Data/PlaybackEngines/WindowsStandaloneSupport/Variations/mono/Managed/UnityEngine.CoreModule.dll"
-r:"C:/Program Files/Unity/Hub/Editor/2022.2.18f1/Editor/Data/PlaybackEngines/WindowsStandaloneSupport/Variations/mono/Managed/UnityEngine.CrashReportingModule.dll"
-r:"C:/Program Files/Unity/Hub/Editor/2022.2.18f1/Editor/Data/PlaybackEngines/WindowsStandaloneSupport/Variations/mono/Managed/UnityEngine.DirectorModule.dll"
-r:"C:/Program Files/Unity/Hub/Editor/2022.2.18f1/Editor/Data/PlaybackEngines/WindowsStandaloneSupport/Variations/mono/Managed/UnityEngine.dll"
-r:"C:/Program Files/Unity/Hub/Editor/2022.2.18f1/Editor/Data/PlaybackEngines/WindowsStandaloneSupport/Variations/mono/Managed/UnityEngine.DSPGraphModule.dll"
-r:"C:/Program Files/Unity/Hub/Editor/2022.2.18f1/Editor/Data/PlaybackEngines/WindowsStandaloneSupport/Variations/mono/Managed/UnityEngine.GameCenterModule.dll"
-r:"C:/Program Files/Unity/Hub/Editor/2022.2.18f1/Editor/Data/PlaybackEngines/WindowsStandaloneSupport/Variations/mono/Managed/UnityEngine.GIModule.dll"
-r:"C:/Program Files/Unity/Hub/Editor/2022.2.18f1/Editor/Data/PlaybackEngines/WindowsStandaloneSupport/Variations/mono/Managed/UnityEngine.GridModule.dll"
-r:"C:/Program Files/Unity/Hub/Editor/2022.2.18f1/Editor/Data/PlaybackEngines/WindowsStandaloneSupport/Variations/mono/Managed/UnityEngine.HotReloadModule.dll"
-r:"C:/Program Files/Unity/Hub/Editor/2022.2.18f1/Editor/Data/PlaybackEngines/WindowsStandaloneSupport/Variations/mono/Managed/UnityEngine.ImageConversionModule.dll"
-r:"C:/Program Files/Unity/Hub/Editor/2022.2.18f1/Editor/Data/PlaybackEngines/WindowsStandaloneSupport/Variations/mono/Managed/UnityEngine.IMGUIModule.dll"
-r:"C:/Program Files/Unity/Hub/Editor/2022.2.18f1/Editor/Data/PlaybackEngines/WindowsStandaloneSupport/Variations/mono/Managed/UnityEngine.InputLegacyModule.dll"
-r:"C:/Program Files/Unity/Hub/Editor/2022.2.18f1/Editor/Data/PlaybackEngines/WindowsStandaloneSupport/Variations/mono/Managed/UnityEngine.InputModule.dll"
-r:"C:/Program Files/Unity/Hub/Editor/2022.2.18f1/Editor/Data/PlaybackEngines/WindowsStandaloneSupport/Variations/mono/Managed/UnityEngine.JSONSerializeModule.dll"
-r:"C:/Program Files/Unity/Hub/Editor/2022.2.18f1/Editor/Data/PlaybackEngines/WindowsStandaloneSupport/Variations/mono/Managed/UnityEngine.LocalizationModule.dll"
-r:"C:/Program Files/Unity/Hub/Editor/2022.2.18f1/Editor/Data/PlaybackEngines/WindowsStandaloneSupport/Variations/mono/Managed/UnityEngine.ParticleSystemModule.dll"
-r:"C:/Program Files/Unity/Hub/Editor/2022.2.18f1/Editor/Data/PlaybackEngines/WindowsStandaloneSupport/Variations/mono/Managed/UnityEngine.PerformanceReportingModule.dll"
-r:"C:/Program Files/Unity/Hub/Editor/2022.2.18f1/Editor/Data/PlaybackEngines/WindowsStandaloneSupport/Variations/mono/Managed/UnityEngine.Physics2DModule.dll"
-r:"C:/Program Files/Unity/Hub/Editor/2022.2.18f1/Editor/Data/PlaybackEngines/WindowsStandaloneSupport/Variations/mono/Managed/UnityEngine.PhysicsModule.dll"
-r:"C:/Program Files/Unity/Hub/Editor/2022.2.18f1/Editor/Data/PlaybackEngines/WindowsStandaloneSupport/Variations/mono/Managed/UnityEngine.ProfilerModule.dll"
-r:"C:/Program Files/Unity/Hub/Editor/2022.2.18f1/Editor/Data/PlaybackEngines/WindowsStandaloneSupport/Variations/mono/Managed/UnityEngine.PropertiesModule.dll"
-r:"C:/Program Files/Unity/Hub/Editor/2022.2.18f1/Editor/Data/PlaybackEngines/WindowsStandaloneSupport/Variations/mono/Managed/UnityEngine.RuntimeInitializeOnLoadManagerInitializerModule.dll"
-r:"C:/Program Files/Unity/Hub/Editor/2022.2.18f1/Editor/Data/PlaybackEngines/WindowsStandaloneSupport/Variations/mono/Managed/UnityEngine.ScreenCaptureModule.dll"
-r:"C:/Program Files/Unity/Hub/Editor/2022.2.18f1/Editor/Data/PlaybackEngines/WindowsStandaloneSupport/Variations/mono/Managed/UnityEngine.SharedInternalsModule.dll"
-r:"C:/Program Files/Unity/Hub/Editor/2022.2.18f1/Editor/Data/PlaybackEngines/WindowsStandaloneSupport/Variations/mono/Managed/UnityEngine.SpriteMaskModule.dll"
-r:"C:/Program Files/Unity/Hub/Editor/2022.2.18f1/Editor/Data/PlaybackEngines/WindowsStandaloneSupport/Variations/mono/Managed/UnityEngine.SpriteShapeModule.dll"
-r:"C:/Program Files/Unity/Hub/Editor/2022.2.18f1/Editor/Data/PlaybackEngines/WindowsStandaloneSupport/Variations/mono/Managed/UnityEngine.StreamingModule.dll"
-r:"C:/Program Files/Unity/Hub/Editor/2022.2.18f1/Editor/Data/PlaybackEngines/WindowsStandaloneSupport/Variations/mono/Managed/UnityEngine.SubstanceModule.dll"
-r:"C:/Program Files/Unity/Hub/Editor/2022.2.18f1/Editor/Data/PlaybackEngines/WindowsStandaloneSupport/Variations/mono/Managed/UnityEngine.SubsystemsModule.dll"
-r:"C:/Program Files/Unity/Hub/Editor/2022.2.18f1/Editor/Data/PlaybackEngines/WindowsStandaloneSupport/Variations/mono/Managed/UnityEngine.TerrainModule.dll"
-r:"C:/Program Files/Unity/Hub/Editor/2022.2.18f1/Editor/Data/PlaybackEngines/WindowsStandaloneSupport/Variations/mono/Managed/UnityEngine.TerrainPhysicsModule.dll"
-r:"C:/Program Files/Unity/Hub/Editor/2022.2.18f1/Editor/Data/PlaybackEngines/WindowsStandaloneSupport/Variations/mono/Managed/UnityEngine.TextCoreFontEngineModule.dll"
-r:"C:/Program Files/Unity/Hub/Editor/2022.2.18f1/Editor/Data/PlaybackEngines/WindowsStandaloneSupport/Variations/mono/Managed/UnityEngine.TextCoreTextEngineModule.dll"
-r:"C:/Program Files/Unity/Hub/Editor/2022.2.18f1/Editor/Data/PlaybackEngines/WindowsStandaloneSupport/Variations/mono/Managed/UnityEngine.TextRenderingModule.dll"
-r:"C:/Program Files/Unity/Hub/Editor/2022.2.18f1/Editor/Data/PlaybackEngines/WindowsStandaloneSupport/Variations/mono/Managed/UnityEngine.TilemapModule.dll"
-r:"C:/Program Files/Unity/Hub/Editor/2022.2.18f1/Editor/Data/PlaybackEngines/WindowsStandaloneSupport/Variations/mono/Managed/UnityEngine.TLSModule.dll"
-r:"C:/Program Files/Unity/Hub/Editor/2022.2.18f1/Editor/Data/PlaybackEngines/WindowsStandaloneSupport/Variations/mono/Managed/UnityEngine.UIElementsModule.dll"
-r:"C:/Program Files/Unity/Hub/Editor/2022.2.18f1/Editor/Data/PlaybackEngines/WindowsStandaloneSupport/Variations/mono/Managed/UnityEngine.UIModule.dll"
-r:"C:/Program Files/Unity/Hub/Editor/2022.2.18f1/Editor/Data/PlaybackEngines/WindowsStandaloneSupport/Variations/mono/Managed/UnityEngine.UmbraModule.dll"
-r:"C:/Program Files/Unity/Hub/Editor/2022.2.18f1/Editor/Data/PlaybackEngines/WindowsStandaloneSupport/Variations/mono/Managed/UnityEngine.UnityAnalyticsCommonModule.dll"
-r:"C:/Program Files/Unity/Hub/Editor/2022.2.18f1/Editor/Data/PlaybackEngines/WindowsStandaloneSupport/Variations/mono/Managed/UnityEngine.UnityAnalyticsModule.dll"
-r:"C:/Program Files/Unity/Hub/Editor/2022.2.18f1/Editor/Data/PlaybackEngines/WindowsStandaloneSupport/Variations/mono/Managed/UnityEngine.UnityConnectModule.dll"
-r:"C:/Program Files/Unity/Hub/Editor/2022.2.18f1/Editor/Data/PlaybackEngines/WindowsStandaloneSupport/Variations/mono/Managed/UnityEngine.UnityCurlModule.dll"
-r:"C:/Program Files/Unity/Hub/Editor/2022.2.18f1/Editor/Data/PlaybackEngines/WindowsStandaloneSupport/Variations/mono/Managed/UnityEngine.UnityTestProtocolModule.dll"
-r:"C:/Program Files/Unity/Hub/Editor/2022.2.18f1/Editor/Data/PlaybackEngines/WindowsStandaloneSupport/Variations/mono/Managed/UnityEngine.UnityWebRequestAssetBundleModule.dll"
-r:"C:/Program Files/Unity/Hub/Editor/2022.2.18f1/Editor/Data/PlaybackEngines/WindowsStandaloneSupport/Variations/mono/Managed/UnityEngine.UnityWebRequestAudioModule.dll"
-r:"C:/Program Files/Unity/Hub/Editor/2022.2.18f1/Editor/Data/PlaybackEngines/WindowsStandaloneSupport/Variations/mono/Managed/UnityEngine.UnityWebRequestModule.dll"
-r:"C:/Program Files/Unity/Hub/Editor/2022.2.18f1/Editor/Data/PlaybackEngines/WindowsStandaloneSupport/Variations/mono/Managed/UnityEngine.UnityWebRequestTextureModule.dll"
-r:"C:/Program Files/Unity/Hub/Editor/2022.2.18f1/Editor/Data/PlaybackEngines/WindowsStandaloneSupport/Variations/mono/Managed/UnityEngine.UnityWebRequestWWWModule.dll"
-r:"C:/Program Files/Unity/Hub/Editor/2022.2.18f1/Editor/Data/PlaybackEngines/WindowsStandaloneSupport/Variations/mono/Managed/UnityEngine.VehiclesModule.dll"
-r:"C:/Program Files/Unity/Hub/Editor/2022.2.18f1/Editor/Data/PlaybackEngines/WindowsStandaloneSupport/Variations/mono/Managed/UnityEngine.VFXModule.dll"
-r:"C:/Program Files/Unity/Hub/Editor/2022.2.18f1/Editor/Data/PlaybackEngines/WindowsStandaloneSupport/Variations/mono/Managed/UnityEngine.VideoModule.dll"
-r:"C:/Program Files/Unity/Hub/Editor/2022.2.18f1/Editor/Data/PlaybackEngines/WindowsStandaloneSupport/Variations/mono/Managed/UnityEngine.VirtualTexturingModule.dll"
-r:"C:/Program Files/Unity/Hub/Editor/2022.2.18f1/Editor/Data/PlaybackEngines/WindowsStandaloneSupport/Variations/mono/Managed/UnityEngine.VRModule.dll"
-r:"C:/Program Files/Unity/Hub/Editor/2022.2.18f1/Editor/Data/PlaybackEngines/WindowsStandaloneSupport/Variations/mono/Managed/UnityEngine.WindModule.dll"
-r:"C:/Program Files/Unity/Hub/Editor/2022.2.18f1/Editor/Data/PlaybackEngines/WindowsStandaloneSupport/Variations/mono/Managed/UnityEngine.XRModule.dll"
-r:"Library/PackageCache/com.unity.nuget.newtonsoft-json@3.2.0/Runtime/AOT/Newtonsoft.Json.dll"
-r:"Library/PackageCache/com.unity.visualscripting@1.8.0/Runtime/VisualScripting.Flow/Dependencies/NCalc/Unity.VisualScripting.Antlr3.Runtime.dll"
-r:"Library/Bee/artifacts/1900b0aP.dag/Assembly-CSharp-firstpass.ref.dll"
-r:"Library/Bee/artifacts/1900b0aP.dag/Purchasing.Common.ref.dll"
-r:"Library/Bee/artifacts/1900b0aP.dag/Unity.AI.Navigation.ref.dll"
-r:"Library/Bee/artifacts/1900b0aP.dag/Unity.Analytics.DataPrivacy.ref.dll"
-r:"Library/Bee/artifacts/1900b0aP.dag/Unity.Postprocessing.Runtime.ref.dll"
-r:"Library/Bee/artifacts/1900b0aP.dag/Unity.Services.Analytics.ref.dll"
-r:"Library/Bee/artifacts/1900b0aP.dag/Unity.Services.Core.Analytics.ref.dll"
-r:"Library/Bee/artifacts/1900b0aP.dag/Unity.Services.Core.Environments.ref.dll"
-r:"Library/Bee/artifacts/1900b0aP.dag/Unity.Services.Core.ref.dll"
-r:"Library/Bee/artifacts/1900b0aP.dag/Unity.TextMeshPro.ref.dll"
-r:"Library/Bee/artifacts/1900b0aP.dag/Unity.Timeline.ref.dll"
-r:"Library/Bee/artifacts/1900b0aP.dag/Unity.VisualScripting.Core.ref.dll"
-r:"Library/Bee/artifacts/1900b0aP.dag/Unity.VisualScripting.Flow.ref.dll"
-r:"Library/Bee/artifacts/1900b0aP.dag/Unity.VisualScripting.State.ref.dll"
-r:"Library/Bee/artifacts/1900b0aP.dag/UnityEngine.Advertisements.ref.dll"
-r:"Library/Bee/artifacts/1900b0aP.dag/UnityEngine.Purchasing.Codeless.ref.dll"
-r:"Library/Bee/artifacts/1900b0aP.dag/UnityEngine.Purchasing.ref.dll"
-r:"Library/Bee/artifacts/1900b0aP.dag/UnityEngine.Purchasing.SecurityCore.ref.dll"
-r:"Library/Bee/artifacts/1900b0aP.dag/UnityEngine.Purchasing.SecurityStub.ref.dll"
-r:"Library/Bee/artifacts/1900b0aP.dag/UnityEngine.Purchasing.Stores.ref.dll"
-r:"Library/Bee/artifacts/1900b0aP.dag/UnityEngine.SpatialTracking.ref.dll"
-r:"Library/Bee/artifacts/1900b0aP.dag/UnityEngine.UI.ref.dll"
-r:"Library/Bee/artifacts/1900b0aP.dag/UnityEngine.XR.LegacyInputHelpers.ref.dll"
-analyzer:"C:/Program Files/Unity/Hub/Editor/2022.2.18f1/Editor/Data/Tools/Unity.SourceGenerators/Unity.Properties.SourceGenerator.dll"
-analyzer:"C:/Program Files/Unity/Hub/Editor/2022.2.18f1/Editor/Data/Tools/Unity.SourceGenerators/Unity.SourceGenerators.dll"
"Assets/Photon Unity Networking/Demos/Demo2DJumpAndRunWithPhysics/Scripts/Demo2DJumpAndRun.cs"
"Assets/Photon Unity Networking/Demos/Demo2DJumpAndRunWithPhysics/Scripts/JumpAndRunMovement.cs"
"Assets/Photon Unity Networking/Demos/DemoBoxes/ColorPerPlayer.cs"
"Assets/Photon Unity Networking/Demos/DemoBoxes/ColorPerPlayerApply.cs"
"Assets/Photon Unity Networking/Demos/DemoBoxes/DemoBoxesGui.cs"
"Assets/Photon Unity Networking/Demos/DemoBoxes/OnAwakePhysicsSettings.cs"
"Assets/Photon Unity Networking/Demos/DemoBoxes/OnClickFlashRpc.cs"
"Assets/Photon Unity Networking/Demos/DemoBoxes/OnDoubleclickDestroy.cs"
"Assets/Photon Unity Networking/Demos/DemoChangeOwner/ClickAndDrag.cs"
"Assets/Photon Unity Networking/Demos/DemoChangeOwner/DemoOwnershipGui.cs"
"Assets/Photon Unity Networking/Demos/DemoChangeOwner/HighlightOwnedGameObj.cs"
"Assets/Photon Unity Networking/Demos/DemoChangeOwner/InstantiateCube.cs"
"Assets/Photon Unity Networking/Demos/DemoChangeOwner/MaterialPerOwner.cs"
"Assets/Photon Unity Networking/Demos/DemoChangeOwner/OnClickDisableObj.cs"
"Assets/Photon Unity Networking/Demos/DemoChangeOwner/OnClickRequestOwnership.cs"
"Assets/Photon Unity Networking/Demos/DemoChangeOwner/OnClickRightDestroy.cs"
"Assets/Photon Unity Networking/Demos/DemoChangeOwner/ShowInfoOfPlayer.cs"
"Assets/Photon Unity Networking/Demos/DemoChat/ChannelSelector.cs"
"Assets/Photon Unity Networking/Demos/DemoChat/ChatAppIdCheckerUI.cs"
"Assets/Photon Unity Networking/Demos/DemoChat/ChatGui.cs"
"Assets/Photon Unity Networking/Demos/DemoChat/FriendItem.cs"
"Assets/Photon Unity Networking/Demos/DemoChat/IgnoreUiRaycastWhenInactive.cs"
"Assets/Photon Unity Networking/Demos/DemoChat/NamePickGui.cs"
"Assets/Photon Unity Networking/Demos/DemoFriendsAndCustomAuth/GUICustomAuth.cs"
"Assets/Photon Unity Networking/Demos/DemoFriendsAndCustomAuth/GUIFriendFinding.cs"
"Assets/Photon Unity Networking/Demos/DemoFriendsAndCustomAuth/GUIFriendsInRoom.cs"
"Assets/Photon Unity Networking/Demos/DemoFriendsAndCustomAuth/OnClickCallMethod.cs"
"Assets/Photon Unity Networking/Demos/DemoHub/HubGui.cs"
"Assets/Photon Unity Networking/Demos/DemoHub/MoveCam.cs"
"Assets/Photon Unity Networking/Demos/DemoHub/Scripts/DemoHubManager.cs"
"Assets/Photon Unity Networking/Demos/DemoHub/Scripts/ToDemoHubButton.cs"
"Assets/Photon Unity Networking/Demos/DemoHub/ToHubButton.cs"
"Assets/Photon Unity Networking/Demos/DemoMecanim/Scripts/DemoMecanimGUI.cs"
"Assets/Photon Unity Networking/Demos/DemoPickup/Scripts/MessageOverlay.cs"
"Assets/Photon Unity Networking/Demos/DemoPickup/Scripts/OnCollideSwitchTeam.cs"
"Assets/Photon Unity Networking/Demos/DemoPickup/Scripts/OnPickedUpScript.cs"
"Assets/Photon Unity Networking/Demos/DemoPickup/Scripts/PickupCamera.cs"
"Assets/Photon Unity Networking/Demos/DemoPickup/Scripts/PickupController.cs"
"Assets/Photon Unity Networking/Demos/DemoPickup/Scripts/PickupDemoGui.cs"
"Assets/Photon Unity Networking/Demos/DemoPickup/Scripts/PickupTriggerForward.cs"
"Assets/Photon Unity Networking/Demos/DemoRockPaperScissors/Scripts/RpsCore.cs"
"Assets/Photon Unity Networking/Demos/DemoRockPaperScissors/Scripts/RpsDebug.cs"
"Assets/Photon Unity Networking/Demos/DemoRockPaperScissors/Scripts/RpsDemoConnect.cs"
"Assets/Photon Unity Networking/Demos/DemoRPGMovement/Scripts/DemoRPGMovement.cs"
"Assets/Photon Unity Networking/Demos/DemoRPGMovement/Scripts/RPGCamera.cs"
"Assets/Photon Unity Networking/Demos/DemoRPGMovement/Scripts/RPGMovement.cs"
"Assets/Photon Unity Networking/Demos/DemoSynchronization/CubeExtra.cs"
"Assets/Photon Unity Networking/Demos/DemoSynchronization/CubeInter.cs"
"Assets/Photon Unity Networking/Demos/DemoSynchronization/CubeLerp.cs"
"Assets/Photon Unity Networking/Demos/DemoSynchronization/DragToMove.cs"
"Assets/Photon Unity Networking/Demos/DemoSynchronization/IELdemo.cs"
"Assets/Photon Unity Networking/Demos/DemoWorker/Scripts/Game/Player/ThirdPersonCamera.cs"
"Assets/Photon Unity Networking/Demos/DemoWorker/Scripts/Game/Player/ThirdPersonController.cs"
"Assets/Photon Unity Networking/Demos/DemoWorker/Scripts/Game/Player/ThirdPersonNetwork.cs"
"Assets/Photon Unity Networking/Demos/DemoWorker/Scripts/WorkerInGame.cs"
"Assets/Photon Unity Networking/Demos/DemoWorker/Scripts/WorkerMenu.cs"
"Assets/Photon Unity Networking/Demos/MarcoPolo-Tutorial/AudioRpc.cs"
"Assets/Photon Unity Networking/Demos/MarcoPolo-Tutorial/ClickDetector.cs"
"Assets/Photon Unity Networking/Demos/MarcoPolo-Tutorial/GameLogic.cs"
"Assets/Photon Unity Networking/Demos/MarcoPolo-Tutorial/Monstergame/Resources/Scripts/myThirdPersonController.cs"
"Assets/Photon Unity Networking/Demos/MarcoPolo-Tutorial/NetworkCharacter.cs"
"Assets/Photon Unity Networking/Demos/MarcoPolo-Tutorial/OnClickLoadSomething.cs"
"Assets/Photon Unity Networking/Demos/MarcoPolo-Tutorial/RandomMatchmaker.cs"
"Assets/Photon Unity Networking/Demos/PunBasics-Tutorial/Scripts/CameraWork.cs"
"Assets/Photon Unity Networking/Demos/PunBasics-Tutorial/Scripts/GameManager.cs"
"Assets/Photon Unity Networking/Demos/PunBasics-Tutorial/Scripts/Launcher.cs"
"Assets/Photon Unity Networking/Demos/PunBasics-Tutorial/Scripts/LoaderAnime.cs"
"Assets/Photon Unity Networking/Demos/PunBasics-Tutorial/Scripts/PlayerAnimatorManager.cs"
"Assets/Photon Unity Networking/Demos/PunBasics-Tutorial/Scripts/PlayerManager.cs"
"Assets/Photon Unity Networking/Demos/PunBasics-Tutorial/Scripts/PlayerNameInputField.cs"
"Assets/Photon Unity Networking/Demos/PunBasics-Tutorial/Scripts/PlayerUI.cs"
"Assets/Photon Unity Networking/Demos/Shared Assets/Scripts/IdleRunJump.cs"
"Assets/Photon Unity Networking/Demos/Shared Assets/Scripts/PlayerDiamond.cs"
"Assets/Photon Unity Networking/Demos/Shared Assets/Scripts/PlayerVariables.cs"
"Assets/Photon Unity Networking/Plugins/PhotonNetwork/CustomTypes.cs"
"Assets/Photon Unity Networking/Plugins/PhotonNetwork/Enums.cs"
"Assets/Photon Unity Networking/Plugins/PhotonNetwork/Extensions.cs"
"Assets/Photon Unity Networking/Plugins/PhotonNetwork/FriendInfo.cs"
"Assets/Photon Unity Networking/Plugins/PhotonNetwork/GizmoType.cs"
"Assets/Photon Unity Networking/Plugins/PhotonNetwork/LoadbalancingPeer.cs"
"Assets/Photon Unity Networking/Plugins/PhotonNetwork/NetworkingPeer.cs"
"Assets/Photon Unity Networking/Plugins/PhotonNetwork/PhotonClasses.cs"
"Assets/Photon Unity Networking/Plugins/PhotonNetwork/PhotonHandler.cs"
"Assets/Photon Unity Networking/Plugins/PhotonNetwork/PhotonLagSimulationGui.cs"
"Assets/Photon Unity Networking/Plugins/PhotonNetwork/PhotonNetwork.cs"
"Assets/Photon Unity Networking/Plugins/PhotonNetwork/PhotonPing.cs"
"Assets/Photon Unity Networking/Plugins/PhotonNetwork/PhotonPlayer.cs"
"Assets/Photon Unity Networking/Plugins/PhotonNetwork/PhotonStatsGui.cs"
"Assets/Photon Unity Networking/Plugins/PhotonNetwork/PhotonStreamQueue.cs"
"Assets/Photon Unity Networking/Plugins/PhotonNetwork/PhotonView.cs"
"Assets/Photon Unity Networking/Plugins/PhotonNetwork/PingCloudRegions.cs"
"Assets/Photon Unity Networking/Plugins/PhotonNetwork/Room.cs"
"Assets/Photon Unity Networking/Plugins/PhotonNetwork/RoomInfo.cs"
"Assets/Photon Unity Networking/Plugins/PhotonNetwork/RPC.cs"
"Assets/Photon Unity Networking/Plugins/PhotonNetwork/ServerSettings.cs"
"Assets/Photon Unity Networking/Plugins/PhotonNetwork/SocketUdp.cs"
"Assets/Photon Unity Networking/Plugins/PhotonNetwork/Views/PhotonAnimatorView.cs"
"Assets/Photon Unity Networking/Plugins/PhotonNetwork/Views/PhotonRigidbody2DView.cs"
"Assets/Photon Unity Networking/Plugins/PhotonNetwork/Views/PhotonRigidbodyView.cs"
"Assets/Photon Unity Networking/Plugins/PhotonNetwork/Views/PhotonTransformView.cs"
"Assets/Photon Unity Networking/Plugins/PhotonNetwork/Views/PhotonTransformViewPositionControl.cs"
"Assets/Photon Unity Networking/Plugins/PhotonNetwork/Views/PhotonTransformViewPositionModel.cs"
"Assets/Photon Unity Networking/Plugins/PhotonNetwork/Views/PhotonTransformViewRotationControl.cs"
"Assets/Photon Unity Networking/Plugins/PhotonNetwork/Views/PhotonTransformViewRotationModel.cs"
"Assets/Photon Unity Networking/Plugins/PhotonNetwork/Views/PhotonTransformViewScaleControl.cs"
"Assets/Photon Unity Networking/Plugins/PhotonNetwork/Views/PhotonTransformViewScaleModel.cs"
"Assets/Photon Unity Networking/UtilityScripts/ConnectAndJoinRandom.cs"
"Assets/Photon Unity Networking/UtilityScripts/CullArea.cs"
"Assets/Photon Unity Networking/UtilityScripts/InputToEvent.cs"
"Assets/Photon Unity Networking/UtilityScripts/InRoomChat.cs"
"Assets/Photon Unity Networking/UtilityScripts/ManualPhotonViewAllocator.cs"
"Assets/Photon Unity Networking/UtilityScripts/MoveByKeys.cs"
"Assets/Photon Unity Networking/UtilityScripts/NetworkCullingHandler.cs"
"Assets/Photon Unity Networking/UtilityScripts/OnClickDestroy.cs"
"Assets/Photon Unity Networking/UtilityScripts/OnClickInstantiate.cs"
"Assets/Photon Unity Networking/UtilityScripts/OnJoinedInstantiate.cs"
"Assets/Photon Unity Networking/UtilityScripts/OnStartDelete.cs"
"Assets/Photon Unity Networking/UtilityScripts/PhotonPlayer/PlayerRoomIndexing.cs"
"Assets/Photon Unity Networking/UtilityScripts/PickupItem.cs"
"Assets/Photon Unity Networking/UtilityScripts/PickupItemSimple.cs"
"Assets/Photon Unity Networking/UtilityScripts/PickupItemSyncer.cs"
"Assets/Photon Unity Networking/UtilityScripts/PointedAtGameObjectInfo.cs"
"Assets/Photon Unity Networking/UtilityScripts/PunPlayerScores.cs"
"Assets/Photon Unity Networking/UtilityScripts/PunTeams.cs"
"Assets/Photon Unity Networking/UtilityScripts/PunTurnManager.cs"
"Assets/Photon Unity Networking/UtilityScripts/QuitOnEscapeOrBack.cs"
"Assets/Photon Unity Networking/UtilityScripts/ShowStatusWhenConnecting.cs"
"Assets/Photon Unity Networking/UtilityScripts/SmoothSyncMovement.cs"
"Assets/Photon Unity Networking/UtilityScripts/SupportLogger.cs"
"Assets/Photon Unity Networking/UtilityScripts/TimeKeeper.cs"
"Assets/Photon Unity Networking/UtilityScripts/UI/ButtonInsideScrollList.cs"
"Assets/Photon Unity Networking/UtilityScripts/UI/TextButtonTransition.cs"
"Assets/Photon Unity Networking/UtilityScripts/UI/TextToggleIsOnTransition.cs"
"Assets/PhotonChatApi/ChannelCreationOptions.cs"
"Assets/PhotonChatApi/ChannelWellKnownProperties.cs"
"Assets/PhotonChatApi/ChatChannel.cs"
"Assets/PhotonChatApi/ChatClient.cs"
"Assets/PhotonChatApi/ChatDisconnectCause.cs"
"Assets/PhotonChatApi/ChatEventCode.cs"
"Assets/PhotonChatApi/ChatOperationCode.cs"
"Assets/PhotonChatApi/ChatParameterCode.cs"
"Assets/PhotonChatApi/ChatPeer.cs"
"Assets/PhotonChatApi/ChatState.cs"
"Assets/PhotonChatApi/ChatUserStatus.cs"
"Assets/PhotonChatApi/IChatClientListener.cs"
"Assets/Scripts/Camera/CameraController.cs"
"Assets/Scripts/Login/LoginManager.cs"
"Assets/Scripts/Login/MiniJSON/MiniJSON.cs"
"Assets/Scripts/Login/UserData.cs"
"Assets/Scripts/Login/UserDataModel.cs"
"Assets/Scripts/Managers/GameManager.cs"
"Assets/Scripts/Photon/JoinButton.cs"
"Assets/Scripts/Photon/PhotonManager.cs"
"Assets/Scripts/Photon/RoomManager.cs"
"Assets/Scripts/Shell/ShellExplosion.cs"
"Assets/Scripts/Tank/TankHealth.cs"
"Assets/Scripts/Tank/TankManager.cs"
"Assets/Scripts/Tank/TankMovement.cs"
"Assets/Scripts/Tank/TankShooting.cs"
"Assets/Scripts/UI/UIDirectionControl.cs"
"Assets/Scripts/UserManager.cs"
"Assets/TutorialInfo/Scripts/Readme.cs"
"Assets/_Completed-Assets/Scripts/Camera/CameraControl.cs"
"Assets/_Completed-Assets/Scripts/Managers/GameManager.cs"
"Assets/_Completed-Assets/Scripts/Managers/TankManager.cs"
"Assets/_Completed-Assets/Scripts/Shell/ShellExplosion.cs"
"Assets/_Completed-Assets/Scripts/Tank/TankHealth.cs"
"Assets/_Completed-Assets/Scripts/Tank/TankMovement.cs"
"Assets/_Completed-Assets/Scripts/Tank/TankShooting.cs"
"Assets/_Completed-Assets/Scripts/UI/UIDirectionControl.cs"
-langversion:9.0


/optimize+
/debug:portable
/nologo
/RuntimeMetadataVersion:v4.0.30319

/nowarn:0169
/nowarn:0649
/nowarn:0282
/nowarn:1701
/nowarn:1702
/utf8output
/preferreduilang:en-US



/additionalfile:"Library/Bee/artifacts/1900b0aP.dag/Assembly-CSharp.UnityAdditionalFile.txt"