Library\Bee\artifacts\mvdfrm\Unity.Services.Core.Internal.ref.dll_1A693ED936C5C9EF.mvfrm
Library\Bee\artifacts\mvdfrm\UnityEngine.UI.ref.dll_FAE6DBEA21006BE5.mvfrm
Library\Bee\artifacts\mvdfrm\UnityEngine.AccessibilityModule.dll_4D730077FE8DDCF3.mvfrm
Library\Bee\artifacts\mvdfrm\UnityEngine.AIModule.dll_5352F24BD76A4117.mvfrm
Library\Bee\artifacts\mvdfrm\UnityEngine.AndroidJNIModule.dll_B833F538B92A9255.mvfrm
Library\Bee\artifacts\mvdfrm\UnityEngine.AnimationModule.dll_DD5347502C91C6D9.mvfrm
Library\Bee\artifacts\mvdfrm\UnityEngine.ARModule.dll_0CC5B74F34879FE0.mvfrm
Library\Bee\artifacts\mvdfrm\UnityEngine.AssetBundleModule.dll_B145F095B1ED2327.mvfrm
Library\Bee\artifacts\mvdfrm\UnityEngine.AudioModule.dll_0BFDA19608DC498B.mvfrm
Library\Bee\artifacts\mvdfrm\UnityEngine.ClothModule.dll_72E5FE90E2F9286F.mvfrm
Library\Bee\artifacts\mvdfrm\UnityEngine.ClusterInputModule.dll_4BAFFC0CE280CC1F.mvfrm
Library\Bee\artifacts\mvdfrm\UnityEngine.ClusterRendererModule.dll_53318166067AC092.mvfrm
Library\Bee\artifacts\mvdfrm\UnityEngine.ContentLoadModule.dll_4A5C49D6806FCB14.mvfrm
Library\Bee\artifacts\mvdfrm\UnityEngine.CoreModule.dll_A62514A843C8244E.mvfrm
Library\Bee\artifacts\mvdfrm\UnityEngine.CrashReportingModule.dll_6EFE10D0EC0174A6.mvfrm
Library\Bee\artifacts\mvdfrm\UnityEngine.DirectorModule.dll_954D356506EE15EB.mvfrm
Library\Bee\artifacts\mvdfrm\UnityEngine.dll_9538F8BBBFA813E7.mvfrm
Library\Bee\artifacts\mvdfrm\UnityEngine.DSPGraphModule.dll_9A9E96CE794EE70C.mvfrm
Library\Bee\artifacts\mvdfrm\UnityEngine.GameCenterModule.dll_E2813F537F6B8346.mvfrm
Library\Bee\artifacts\mvdfrm\UnityEngine.GIModule.dll_EB8F3B5973192931.mvfrm
Library\Bee\artifacts\mvdfrm\UnityEngine.GridModule.dll_839630965C1CBA45.mvfrm
Library\Bee\artifacts\mvdfrm\UnityEngine.HotReloadModule.dll_5E9C055607C4E25B.mvfrm
Library\Bee\artifacts\mvdfrm\UnityEngine.ImageConversionModule.dll_BF237F16889F7886.mvfrm
Library\Bee\artifacts\mvdfrm\UnityEngine.IMGUIModule.dll_445D40FCCF0DDD6C.mvfrm
Library\Bee\artifacts\mvdfrm\UnityEngine.InputLegacyModule.dll_428B0BB449DED918.mvfrm
Library\Bee\artifacts\mvdfrm\UnityEngine.InputModule.dll_727369467F146E2F.mvfrm
Library\Bee\artifacts\mvdfrm\UnityEngine.JSONSerializeModule.dll_AD8A89B3FDC93D7D.mvfrm
Library\Bee\artifacts\mvdfrm\UnityEngine.LocalizationModule.dll_89FCC65F79FCBF18.mvfrm
Library\Bee\artifacts\mvdfrm\UnityEngine.ParticleSystemModule.dll_C2105A1D5A130034.mvfrm
Library\Bee\artifacts\mvdfrm\UnityEngine.PerformanceReportingModule.dll_B5B49377B59B870D.mvfrm
Library\Bee\artifacts\mvdfrm\UnityEngine.Physics2DModule.dll_29F93740CD8EBE6E.mvfrm
Library\Bee\artifacts\mvdfrm\UnityEngine.PhysicsModule.dll_A4B17B3E64EC63BC.mvfrm
Library\Bee\artifacts\mvdfrm\UnityEngine.ProfilerModule.dll_C7936E9BA0479CF8.mvfrm
Library\Bee\artifacts\mvdfrm\UnityEngine.PropertiesModule.dll_0FBC7E91F256E782.mvfrm
Library\Bee\artifacts\mvdfrm\UnityEngine.RuntimeInitializeOnLoadManagerInitializerModule.dll_E0215F62B80E0B37.mvfrm
Library\Bee\artifacts\mvdfrm\UnityEngine.ScreenCaptureModule.dll_C7723739123569DF.mvfrm
Library\Bee\artifacts\mvdfrm\UnityEngine.SharedInternalsModule.dll_4334BDEBFFCD73D6.mvfrm
Library\Bee\artifacts\mvdfrm\UnityEngine.SpriteMaskModule.dll_CBADB1E3A0DB18C0.mvfrm
Library\Bee\artifacts\mvdfrm\UnityEngine.SpriteShapeModule.dll_CAA71DF0678F5B31.mvfrm
Library\Bee\artifacts\mvdfrm\UnityEngine.StreamingModule.dll_91E834A07C197E17.mvfrm
Library\Bee\artifacts\mvdfrm\UnityEngine.SubstanceModule.dll_6E9348E9C76C7C25.mvfrm
Library\Bee\artifacts\mvdfrm\UnityEngine.SubsystemsModule.dll_365B18456F2300D3.mvfrm
Library\Bee\artifacts\mvdfrm\UnityEngine.TerrainModule.dll_BEF7F6AD3AAAACAA.mvfrm
Library\Bee\artifacts\mvdfrm\UnityEngine.TerrainPhysicsModule.dll_C28B02F07355FAC1.mvfrm
Library\Bee\artifacts\mvdfrm\UnityEngine.TextCoreFontEngineModule.dll_7BDE02F1A576060C.mvfrm
Library\Bee\artifacts\mvdfrm\UnityEngine.TextCoreTextEngineModule.dll_C3C6396334F9BF2A.mvfrm
Library\Bee\artifacts\mvdfrm\UnityEngine.TextRenderingModule.dll_F0B1A943C96CE9D4.mvfrm
Library\Bee\artifacts\mvdfrm\UnityEngine.TilemapModule.dll_5DF45E2E52678DB3.mvfrm
Library\Bee\artifacts\mvdfrm\UnityEngine.TLSModule.dll_C8FD8628A77D6590.mvfrm
Library\Bee\artifacts\mvdfrm\UnityEngine.UIElementsModule.dll_3A9979AD724F3CCA.mvfrm
Library\Bee\artifacts\mvdfrm\UnityEngine.UIModule.dll_4EC6907933B146C3.mvfrm
Library\Bee\artifacts\mvdfrm\UnityEngine.UmbraModule.dll_86D24DAE9602F4FE.mvfrm
Library\Bee\artifacts\mvdfrm\UnityEngine.UnityAnalyticsCommonModule.dll_50F350BBCF84256B.mvfrm
Library\Bee\artifacts\mvdfrm\UnityEngine.UnityAnalyticsModule.dll_E1AFCAE7063A5230.mvfrm
Library\Bee\artifacts\mvdfrm\UnityEngine.UnityConnectModule.dll_B9730B062B80FA04.mvfrm
Library\Bee\artifacts\mvdfrm\UnityEngine.UnityCurlModule.dll_106FE8819CA5B8C6.mvfrm
Library\Bee\artifacts\mvdfrm\UnityEngine.UnityTestProtocolModule.dll_DC5E8F72B6503034.mvfrm
Library\Bee\artifacts\mvdfrm\UnityEngine.UnityWebRequestAssetBundleModule.dll_B9B70C647DAE9901.mvfrm
Library\Bee\artifacts\mvdfrm\UnityEngine.UnityWebRequestAudioModule.dll_2DB0E7563C0651A5.mvfrm
Library\Bee\artifacts\mvdfrm\UnityEngine.UnityWebRequestModule.dll_D0C286C093941305.mvfrm
Library\Bee\artifacts\mvdfrm\UnityEngine.UnityWebRequestTextureModule.dll_43A1A85FCD18BE1A.mvfrm
Library\Bee\artifacts\mvdfrm\UnityEngine.UnityWebRequestWWWModule.dll_8E887EBF24B97B96.mvfrm
Library\Bee\artifacts\mvdfrm\UnityEngine.VehiclesModule.dll_0D102EE48117E586.mvfrm
Library\Bee\artifacts\mvdfrm\UnityEngine.VFXModule.dll_49DC1E977DEACEFD.mvfrm
Library\Bee\artifacts\mvdfrm\UnityEngine.VideoModule.dll_31072600CB6E6530.mvfrm
Library\Bee\artifacts\mvdfrm\UnityEngine.VirtualTexturingModule.dll_3CFC94B9564E796C.mvfrm
Library\Bee\artifacts\mvdfrm\UnityEngine.VRModule.dll_A198B6FED56BCC3B.mvfrm
Library\Bee\artifacts\mvdfrm\UnityEngine.WindModule.dll_1C73EFD0D4FEA2B7.mvfrm
Library\Bee\artifacts\mvdfrm\UnityEngine.XRModule.dll_D4577A035EA61999.mvfrm
Library\Bee\artifacts\mvdfrm\Unity.VisualScripting.Antlr3.Runtime.dll_6B5854E2366B9BC5.mvfrm